%YAML 1.1
%TAG !u! tag:unity3d.com,2011:
--- !u!221 &22100000
AnimatorOverrideController:
  m_ObjectHideFlags: 0
  m_CorrespondingSourceObject: {fileID: 0}
  m_PrefabInstance: {fileID: 0}
  m_PrefabAsset: {fileID: 0}
  m_Name: MainCamera_6
  m_Controller: {fileID: 9100000, guid: c85e3d1a52ef28a458f9cf91af87c19d, type: 2}
  m_Clips:
  - m_OriginalClip: {fileID: 7400000, guid: 965f165ed74f9dd4381181622ce8bdb1, type: 2}
    m_OverrideClip: {fileID: 7400000, guid: 13599f41aecc4cb419995cd834b9d2b2, type: 2}
  - m_OriginalClip: {fileID: 7400000, guid: c221676c1eda4944abf9631303b3d68e, type: 2}
    m_OverrideClip: {fileID: 7400000, guid: 0482448a86d68b845baa023017977ac6, type: 2}
