{
  "_meta": {
    "maxChars": {}
  },
  "en": {
	  
	"mainMenutitle": "ADRIAN'S FOSSIL COLLECTION",
	"mainMenubtnNewGame": "New game",
	"mainMenubtnContinue": "Continue",



	"levelSelectortitle": "LEVEL",



	"collectionsPaneltxtTitle": "Collections",
	"collectionsPanelbtnBackDig": "Back to digging",
	"collectionsPanelbtnInventory": "Inventory",



	"controlsPaneltxtTitle": "CONTROLS",
	"controlsPaneltxtDig": "Dig",
	"controlsPaneltxtAttack": "Attack",
	"controlsPaneltxtZoom": "Zoom",
	"controlsPaneltxtZoomIn": "Zoom In",
	"controlsPaneltxtZoomOut": "Zoom Out",
	"controlsPaneltxtUp": "Up",
	"controlsPaneltxtLeft": "Left",
	"controlsPaneltxtRight": "Right",
	"controlsPaneltxtDown": "Down",
	"controlsPaneltxtJump": "Space bar: Jump",
	"controlsPaneltxtInventory": "Inventory",



	"gameOverPaneltxtTitle": "GAME OVER",



	"infoPaneltxtLayer1": "Oldest layer",
	"infoPaneltxtLayer2": "Younger layer",
	"infoPaneltxtInfo00":"This is Adrian, he loves to collect fossils.\nTry to learn what you can to help him in this quest.",
	"infoPaneltxtInfo010101": "Principle of Superposition states that younger layers of rock form on top of older layers of rock; that is, unless the layers have been disturbed.",
	"infoPaneltxtInfo010102": "Deeper layers are older than those closer to the surface.",
	"infoPaneltxtInfo010103": "Superposition refers to the position of rock layers and their relative ages.",

	"infoPaneltxtInfo010201": "Fossils are preserved remains or traces of organisms that lived in the past.",
	"infoPaneltxtInfo010202": "Most preserved remains are hard parts, such as amber, bones, dinosaur tracks, fossil feces, burrows, shells or teeth.",
	"infoPaneltxtInfo010301": "Relative dating determines which of two fossils is older or younger than the other but not their age in years.\n\n Relative dating is based on the positions of fossils in rock layers.For example:\nThe teeth is younger than the amber.",
	"infoPaneltxtInfo010401": "A variety of fossil types are pictured here:",
	"infoPaneltxtInfo01040101": "Amber",
	"infoPaneltxtInfo01040102": "A tooth",
	"infoPaneltxtInfo01040103": "Fossil feces from a meat-eating dinosaur",
	"infoPaneltxtInfo01040104": "Fossil animal burrow in rock",
	"infoPaneltxtInfo01040105": "Dinosaur track in mud",
	"infoPaneltxtInfo010501": "Amber is fossilized tree resin, a sticky, viscous substance secreted by plants in order to protect them from pests and predators.\n\n Some organisms get stuck in the resin and frozen for millions of years, preserving fragile structures.",
	

	"infoPaneltxtInfo020101": "Rock strata are layers of sedimentary and volcanic rock that have been deposited on top of each other on Earth's surface.",
	"infoPaneltxtInfo02010101": "Sedimentary rock",
	"infoPaneltxtInfo02010102": "Volcanic rock",
	"infoPaneltxtInfo020102": "Volcanic rock is a rock formed from lava erupted from a volcano.",
	"infoPaneltxtInfo020103": "The age of a rock in years is its absolute age. Absolute ages are determined by radiometric methods, such as carbon-14 dating.",
	
	"infoPaneltxtInfo020201": "The age of a rock in years is its absolute age.For example:\n\nThis ammonite is 65 million years old.",
	"infoPaneltxtInfo020202": "Make the Carbon-14 test to the volcanic rocks to know where to search.",

	"infoPaneltxtInfo020301": "A mold is an imprint of an organism left in rock.",
	"infoPaneltxtInfo020401": "Scientists learn a lot from fossils. Fossils are our best clues about the history of life on Earth. For example:\n\n This is a Dunkleosteus, an old fish",
	"infoPaneltitle0205": "Fossil clues",
	"infoPaneltxtInfo020501": "Fossils of plants are found in Antarctica. Currently, Antarctica is almost completely covered with ice. The fossil plants show that Antarctica once had a much warmer climate.",

	"infoPaneltxtInfoTitle0301": "Using Fossils to Understand Evolution",
	"infoPaneltxtInfo0301": "Evolution of the horse: Numbered bones in the forefoot illustrations trace the gradual transition from a four-toed to a one-toed animal.",
	
	"infoPaneltxtInfoTitle0302": "Evolution of the elephant",
	"infoPaneltxtInfo0302": "Fossils suggest that the earliest ancestors of elephants had flat feet, with no sixth toes, and their ankles rested on the ground. As the animals evolved into giants, they adopted a tip-toe stance that straightened their legs and better supported their weight.",
	"infoPaneltxtInfo030201": "Flat feet",
	"infoPaneltxtInfo030202": "Walk on tip toe",

	"infoPaneltxtInfo0303": "These fossils show the gradual increase in size, and alteration in form of the skull and mandible, ocurring in the Proboscidea from the Eocene to the present day.",
	"infoPaneltxtInfo030301": "Asian Elephant",
	"infoPaneltxtInfo030302": "American Mastodont",
	"infoPaneltxtInfo030303": "Palaeomastodon",
	"infoPaneltxtInfo030304": "Tetrabelodon",
	"infoPaneltxtInfo030305": "Moeritherium",
	"infoPaneltxtInfo030306": "Eocene",
	"infoPaneltxtInfo030307": "Present",

	"infoPaneltxtInfo0304": "With squidlike tentacles extending from their distinctive multichambered shells, the extinct marine predators known as ammonites were once among the most successful and diverse animals on Earth. Scientists have identified more than 10,000 species from fossils.",
	"infoPaneltxtInfo0305": "The Cambrian period, part of the Paleozoic era, produced the most intense burst of evolution ever known. The Cambrian Explosion saw an incredible diversity of life emerge, including many major animal groups alive today.",
	
	"inspectorPaneltxtTitle": "Inspector",
	"inspectorPanelbtnInventory": "Inventory",
	"inspectorPanelbtnCollections": "Collections",
	


	"inventoryPaneltxtTitle": "Inventory",
	"inventoryPanelbtnBackDig": "Back to digging",
	"inventoryPanelbtnCollections": "Collections",
	"inventoryPanelTutorial": "Double click on any fossil to see its description.",


	"levelInfoPaneltxtTheoryTitle": "Theory:",
	"levelInfoPaneltxtTheoryDescription": "Principle of Superposition states that younger layers of rock form on top of older layers of rock; that is, unless the layers have been disturbed.",
	"levelInfoPaneltxtTheoryDescription0102": "Fossils are preserved remains or traces of organisms that lived in the past.\nMost preserved remains are hard parts, such as amber, bones, dinosaur tracks, fossil feces, burrows, shells or teeth.",
	"levelInfoPaneltxtTheoryDescription0103": "Relative dating determines which of two fossils is older or younger than the other but not their age in years.\n\nRelative dating is based on the positions of fossils in rock layers.\n\nFor example: The plant mold is younger than the teeth.",
	"levelInfoPaneltxtTheoryDescription0104": "A variety of fossil types are pictured here:",
	"levelInfoPaneltxtTheoryDescription010401": "Amber",
	"levelInfoPaneltxtTheoryDescription010402": "A teeth",
	"levelInfoPaneltxtTheoryDescription010403": "Fossil feces from a meat-eating dinosaur",
	"levelInfoPaneltxtTheoryDescription010404": "Fossil animal burrow in rock",
	"levelInfoPaneltxtTheoryDescription010405": "Dinosaur track in mud",
	"levelInfoPaneltxtTheoryDescription0105": "Amber is fossilized tree resin, a sticky, viscous substance secreted by plants in order to protect them from pests and predators.\n\n Some organisms get stuck in the resin and frozen for millions of years, preserving fragile structures.",
	"levelInfoPaneltxtTheoryDescription0201": "Rock strata are layers of sedimentary and volcanic rock that have been deposited on top of each other on Earth's surface.\n\nVolcanic rock is a rock formed when lava erupted from a volcano.",
	"levelInfoPaneltxtTheoryDescription0202": "The age of a rock in years is its absolute age. \n\nFor example: This ammonite is 65 million years old",
	"levelInfoPaneltxtTheoryDescription0203":"A mold is an imprint of an organism left in rock.",
	"levelInfoPaneltxtTheoryDescription0204": "Scientists learn a lot from fossils. Fossils are our best clues about the history of life on Earth. For example:\n\n This is a Dunkleosteus, an old fish.",
	"levelInfoPaneltxtTheoryDescription0205":"Fossils give clues about major geological events. Fossils can also give clues about past climates. For example:\n\nThis mold plant was found in Antarctica.",
	
	"levelInfoPaneltxtTheoryDescription3": "Using fossils to understand evolution. For example:\n\nEvolution of the horse: Numbered bones in the forefoot illustrations trace the gradual transition from a four-toed to a one-toed animal.",
	"levelInfoPaneltxtTheoryDescription0302": "Evolution of the elephant: Fossils suggest that the earliest ancestors of elephants had flat feet, with no sixth toes, and their ankles rested on the ground. As the animals evolved into giants, they adopted a tip-toe stance that straightened their legs and better supported their weight.",
	"levelInfoPaneltxtTheoryDescription030201": "Flat feet", 
	"levelInfoPaneltxtTheoryDescription030202": "Walk on tip toe",
	"levelInfoPaneltxtTheoryDescription0303": "These fossils show the gradual increase in size, and alteration in form of the skull and mandible, ocurring in the Proboscidea from the Eocene to the present day.",
	"levelInfoPaneltxtTheoryDescription030301": "Asian Elephant",
	"levelInfoPaneltxtTheoryDescription030302": "American Mastodont",
	"levelInfoPaneltxtTheoryDescription030303": "Palaeomastodon",
	"levelInfoPaneltxtTheoryDescription030304": "Tetrabelodon",
	"levelInfoPaneltxtTheoryDescription030305": "Moeritherium",
	"levelInfoPaneltxtTheoryDescription030306": "Present",
	"levelInfoPaneltxtTheoryDescription030307": "Eocene",

	"levelInfoPaneltxtTheoryDescription0304":"With squidlike tentacles extending from their distinctive multichambered shells, the extinct marine predators known as ammonites were once among the most successful and diverse animals on Earth. Scientists have identified more than 10,000 species from fossils found nearly everywhere on the planet where oceans once existed.",

	"levelInfoPaneltxtTheoryDescription0305":"The Cambrian period, part of the Paleozoic era, produced the most intense burst of evolution ever known. The Cambrian Explosion saw an incredible diversity of life emerge, including many major animal groups alive today.",

	"levelInfoPaneltxtMissionTitle": "Mission:",
	"levelInfoPaneltxtMissionDescription": "Find a Trex's",


	"levelResumePaneltxtTitle": "LEVEL",
	"levelResumePaneltxtTime": "Time",
	"levelResumePaneltxtCoins": "Coins",
	"levelResumePaneltxtFossils": "Fossils",
	"levelResumePaneltxtCollection": "Collection parts",



	"pauseMenutxtLevel": "Level",
	"pauseMenubtnMainMenu": "Main menu",
	"pauseMenubtnControls": "Controls",
	"pauseMenubtnContinue": "Continue",
	"pauseMenubtnLevels": "Levels",
	"pauseMenubtnRetry": "Retry",
	"pauseMenubtnCustomize": "Customize",




	"timesUpPaneltxtTitle": "Time's up!",
	  


	"customizePaneltitle": "Customize",
	"customizePanelmessage": "You need to get all the bones of the collection to use the mask.",

	"customizePanelbasicTitle": "No mask",
	"customizePanelbasicStats": "Speed: 8 \nStrength: 1 \nLife: 9",

	"customizePaneltrexTitle": "T-rex",
	"customizePaneltrexStats": "Speed: 8 \nStrength: 2 \nLife: 9",
	
	"customizePaneltriceratopsTitle": "Triceratops",
	"customizePaneltriceratopsStats": "Speed: 8 \nStrength: 1 \nLife: 11",
	
	"customizePanelvelociraptorTitle": "velociraptor",
	"customizePanelvelociraptorStats": "Speed: 10 \nStrength: 1 \nLife: 9",

	
	
	"datingPaneltxtDescription": "Result of Carbon-14 test", 
	"datingPanel020101": "5,000 years old",
	"datingPanel020201": "17,000 years old",
	"datingPanel020202": "30,000 years old",
	"datingPanel020203": "25,000 years old",
	"datingPanel020301": "30,000 years old",
	"datingPanel020302": "45,000 years old",
	"datingPanel020501": "15,000 years old",
	"datingPanel020502": "37,000 years old",
	"datingPanel030201": "12,000 years old",
	"datingPanel030202": "20,000 years old",
	"datingPanel030301": "35,000 years old",
	"datingPanel030401": "35,000 years old",
	"datingPanel030402": "45,000 years old",
	"datingPanel030501":"20,000 years old",
	"datingPanel030502":"48,000 years old",
	


	"tutorialstxt010101": "Use the \"A\" and \"D\" keys to move left and right.",
	"tutorialstxt010102": "Use the \"W\" and \"S\" keys to move the elevator up and down, use the elevator to reach the oldest layer.",
	"tutorialstxt010201": "For digging press:",
	"tutorialstxt010202": "To attack the enemy press:",
	"tutorialstxt010203": "Press \"i\" to see your inventory, you can find all the fossils, collections and their descriptions.",
	"tutorialstxt010301": "Press \"i\" to open your inventory. You can see all the fossils and collections that you have.",
	"tutorialstxt010302": "In the inventory, you can \"Double click\" on any fossil to see its description.",

	"tutorialstxt020101": "Go to the volcanic rock to get the sample that you need for the carbon 14 test, the best-known method of radiometric dating.",
	"tutorialstxt020102": "You can do the test in the volcanic rock to get its absolute age. To get the sample press:",
	"tutorialstxt020201": "Fortunately, you can make the Carbon-14 test to fossils younger than 50,000 years old, but first make the test to the volcanic rocks, so you can know where to look",
	"tutorialstxt020301": "Use the \"Q\" and \"E\" keys or the scroll wheel for zoom in and zoom out.",
	"tutorialstxt020302": "Zoom",
	"tutorialstxt020303": "Zoom In",
	"tutorialstxt020304": "Zoom Out",
	"tutorialstxt030301": "Be carefull with the tunnels! Use Space bar to Jump. Good luck!",


	"missionstitle": "Mission",
	"missionstxtFinish01": "You completed the mission! Press the arrow:",
	"missionstxtFinish02": "Go to the next level, or you can stay to explore and discover a lot of fossils in the layers.",
	"missionstxtFinish03": "You did it, Adrian!",

	"missionstxt010101": "Go to the oldest layer of rocks in the succession of layers.",
	"missionstxt010201": "Go to the youngest layer and get a bone fossil.",
	"missionstxt010301": "Find the amber that is in the younger layer than the bone.",
	"missionstxt010401": "Get the teeth fossil buried in the older layer than the shell fossil.",
	"missionstxt010501": "Find the amber located in a younger layer than the shell, and older layer than the bone.",

	"missionstxt010601": "Get the bone fossil that is buried in an older layer than the teeth, and younger than the shell.",
	"missionstxt010701": "Find the amber that is in the younger layer than the bone.",
	"missionstxt010702": "Find the teeth that is in an older layer than the bone.",

	"missionstxt020101": "Get the mold that is older than 5,000 years old.",
	"missionstxt020201": "Get the bone that has 25,000 years old",
	"missionstxt020301": "Find the mold that is younger than 30,000 years old.",
	"missionstxt020302": "Find the fossil feces that is younger than the mold that you found.",
	"missionstxtop1": "Get the bone that has 25,000 years old",

	"missionstxt020401": "Find the Dunkleosteus that is in a layer younger than 15,000 years old.",
	"missionstxt020402": "Find the Brachiosaurus's skull that is in a layer younger than 37,000 years old but older than 1,500 years old.",

	"missionstxt020403": "Find the elephant's skull that is younger than 15,000 years old.",

	"missionstxt020501": "Find a plant mold that is younger than the volcanic rock layer.",
	"missionstxt020502": "Find the ocean animal fossil that was found at the top of Mt. Everest. Mt. Everest is the highest mountain on Earth. This fossil shows that the area was once at the bottom of a sea.",

	"missionstxt020503": "Find the ammonite that is in the oldest layer.",

	"missionstxt030101": "The first ancestral horse Hyracotherium, commonly called Eohippus. Find its bone:",
	"missionstxt030201": "Find the elephant bone that is 16,000 years old.",
	"missionstxt0303": "Find the older elephant skull that is older than the volcanic rock.",
	"missionstxt0303detail":"Moeritherium",
	"missionstxt030401": "Find the ammonite mold that is in a layer younger than 35,000 years old.",
	
	"missionstxt030501": "Trilobite is an extinct arthropod that occurred abundantly during the Paleozoic era. You can find a trilobite fossil in a layer younger than 20,000 years old. ",

	
	"testLost": "You almost got",
	"testWin": "You Win",
	"testResult": "Questions",
	
	"testQuestion01": "What evidence is most important when using relative dating?",

	"testAnswer01A": "The position of sediment in petrified rock",
	"testAnswer01B": "The position of fossils in sedimentary rock layers",
	"testAnswer01C": "The half-life of a radioactive element",
	
	"testQuestion02": "Which would be an example of a fossil?",
	"testAnswer02A": "Oyster Pearl",
	"testAnswer02B": "Dinosaur Footprint",
	"testAnswer02C": "Rotting Log",
	
	"testQuestion03": "Where are prehistoric animals preserved as whole animals?",
	"testAnswer03A": "In Sedimentary Rock",
	"testAnswer03B": "In limestone",
	"testAnswer03C": "In amber",
	
	"testQuestion04": "How do scientists determine the actual age of fossils?",
	"testAnswer04A": "Radioactive dating",
	"testAnswer04B": "Relative dating",
	"testAnswer04C": "Mold and cast dating",
	
	"testQuestion05": "Which type of fossil leaves a cavity, or opening, in a rock?",
	"testAnswer05A": "Preserved Part",
	"testAnswer05B": "Cast",
	"testAnswer05C": "Mold",
	
	"testQuestion06": "What can fossils tell us about an organism?",
	"testAnswer06A": "How long ago an organism lived",
	"testAnswer06B": "How an organism lived",
	"testAnswer06C": "All of the above",
	
	"testQuestion07": "How does the fossil record help to support the theory of evolution?",
	"testAnswer07A": "The fossil record shows that organisms slowly change over time",
	"testAnswer07B": "The fossil record shows that species evolve very quickly",
	"testAnswer07C": "The fossil record does not support the theory of evolution",
	
	"testQuestion08": "If scientists found this fossil, what could they infer?",
	"testAnswer08A": "That this fish lacked oxygen",
	"testAnswer08B": "What fish are like today",
	"testAnswer08C": "That water once covered the area where this fossil was found",
	
	"testQuestion09": "What is biological evolution?",
	"testAnswer09A": "Are the remains or evidence of once-living organisms",
	"testAnswer09B": "Is made up of all the fossils ever discovered on Earth",
	"testAnswer09C": "Is the change over time in populations of related organisms",






	"fossilsf0name": "Amber",
	"fossilsf0descriptionLeft": "The spider was trapped in tree resin that hardens to form amber.",
	"fossilsf0descriptionRight": "This spider looks the same as it did the day it died millions of years ago!",

	"fossilsf1name": "Amber",
	"fossilsf1descriptionLeft": "The scorpion was trapped in tree resin that hardened to form amber.",
	"fossilsf1descriptionRight": "This scorpion looks the same as it did the day it died millions of years ago!",

	"fossilsf2name": "Amber",
	"fossilsf2descriptionLeft": "The dragon-fly was trapped in tree resin that hardened to form amber.",
	"fossilsf2descriptionRight": "This dragon-fly looks the same as it did the day it died millions of years ago!",

	"fossilsf3name": "Amber",
	"fossilsf3descriptionLeft": "The dragon-fly was trapped in tree resin that hardened to form amber.",
	"fossilsf3descriptionRight": "This dragon-fly looks the same as it did the day it died millions of years ago!",

	"fossilsf4name": "Amber",
	"fossilsf4descriptionLeft": "The mosquito was trapped in tree resin that hardens to form amber.",
	"fossilsf4descriptionRight": "This mosquito looks the same as it did the day it died millions of years ago!",

	"fossilsf5name": "Macroscaphites",
	"fossilsf5descriptionLeft": "Macroscaphites is an extinct cephalopod genus included in the Ammonoidea that lived during the Barremian and Aptian stages of the Early Cretaceous (118 - 110 million years ago).",
	"fossilsf5descriptionRight": "Its fossils have been found throughout most of Europe and North Africa.",

	"fossilsf6name": "Ammonites",
	"fossilsf6descriptionLeft": "they were ocean-dwelling mollusks, specifically cephalopods.",
	"fossilsf6descriptionRight": "Ammonites were shelled cephalopods that died out about 66 million years ago.",

	"fossilsf7name": "Scaphites",
	"fossilsf7descriptionLeft": "Scaphites were an unusual kind of ammonite. Instead of forming a neat spiral, its shell grew in a crooked shape.",
	"fossilsf7descriptionRight": "As a result, the opening for its head would have gotten tighter and tighter as Scaphites grew, eventually starving the animal to death.",

	"fossilsf8name": "Brachiosaurus skull",
	"fossilsf8descriptionLeft": "Brachiosaurus was a gigantic dinosaur. Scientists have estimated its weight to be more than 28 tons (25 metric tons).",
	"fossilsf8descriptionRight": "Its neck and head stood more than 40 feet (12 meters) in the air.",

	"fossilsf9name": "Palaeomastodon",
	"fossilsf9descriptionLeft": "Palaeomastodon was a descendent of Moeritherium and was possibly an ancestor of the recent elephants.",
	"fossilsf9descriptionRight": "The lower tusks were flat for scooping out plants from swampy water.",

	"fossilsf10name": "Tetrabelodon",
	"fossilsf10descriptionLeft": "The Tetrabelodon was an ancient elephant that averaged around 10 ft tall and weighed in at about 7 tons.",
	"fossilsf10descriptionRight": "They had four tusks. The lower two were believed to be used for digging through mud for food.",

	"fossilsf11name": "American Mastodon",
	"fossilsf11descriptionLeft": "The American mastodon was a large land mammal that roamed North America throughout the last Ice Age until as recently as 13,000 years ago.",
	"fossilsf11descriptionRight": "Mastodons lived in pine forests and boggy areas covered by larch and spruce, feeding on twigs, leaves and water plants.",
	
	"fossilsf12name": "Asian elephant",
	"fossilsf12descriptionLeft": "The Asian elephant is the largest land mammal on the Asian continent. They inhabit dry to wet forest and grassland habitats in 13 range countries spanning South and Southeast Asia.",
	"fossilsf12descriptionRight": "Asian elephants are extremely social, forming groups of six to seven related females that are led by the oldest female, the matriarch.",

	"fossilsf13name": "Moeritherium",
	"fossilsf13descriptionLeft": "Moeritherium was a rotund semi-aquatic mammal with short, stubby legs that lived about 37-35 million years ago.",
	"fossilsf13descriptionRight": "Moeritherium was smaller than most or all later proboscideans. It stood only 70 centimeters (2.3 ft.) high at the shoulder and weighing 235 kilograms (518 lb.).",

	"fossilsf14name": "Megalodon's teeth",
	"fossilsf14descriptionLeft": "Megalodon's blade-like teeth were ideal for preying on fleshy marine mammals, such as whales and dolphins.",
	"fossilsf14descriptionRight": "Teeth can offer a wealth of information about an animal, including clues about its age, when it lived, its diet and whether it had certain diseases.",

	"fossilsf15name": "Tyrannosaurus' teeth",
	"fossilsf15descriptionLeft": "The first remains of tyrannosaurids were uncovered during expeditions led by the Geological Survey of Canada. They located numerous scattered teeth.",
	"fossilsf15descriptionRight": "These distinctive dinosaur teeth were given the name Deinodon (terrible tooth) by Joseph Leidy in 1856.",

	"fossilsf16name": "Dunkleosteus",
	"fossilsf16descriptionLeft": "Dunkleosteus is an extinct genus of large armored, jawed fishes that existed during the Late Devonian period, about 358–382 million years ago.",
	"fossilsf16descriptionRight": "Dunkleosteus could quickly open and close its jaw, like modern-day suction feeders. Numerous fossils of the various species have been found in North America, Poland, Belgium, and Morocco.",
	
	"fossilsf17name": "Fossil feces",
	"fossilsf17descriptionLeft": "Ancient feces can be fossilized only if a mineralizing agent covered it relatively quickly after it was produced. If mineralization was successful and decomposition was avoided, then feces could fossilize, forming a coprolite.",
	"fossilsf17descriptionRight": "The coprolites can provide really special perspectives on ancient life.",

	"fossilsf18name": "Dinosaur tracks in mud",
	"fossilsf18descriptionLeft": "When dinosaurs walked through the mud, they left footprints just like you do on a muddy trail. Over time, these footprints were filled with sand or small pebbles and eventually hardened into rock.",
	"fossilsf18descriptionRight": "The footprints were preserved for millions of years until erosion brought them to the surface where people could see them.",

	"fossilsf19name": "Dinosaur bone",
	"fossilsf19descriptionLeft": "A fossil is any evidence of prehistoric life (plant or animal) that is at least 10,000 years old. The most common fossils are bones and teeth.",
	"fossilsf19descriptionRight": "The most common process of fossilization happens when an animal is buried by sediment, such as sand or silt, shortly after it dies.",

	"fossilsf20name": "Burrow",
	"fossilsf20descriptionLeft": "The prehistoric animals create a space suitable for habitation.",
	"fossilsf20descriptionRight": "The prehistoric animals leave behind evidence of their behaviors.",

	"fossilsf21name": "Mold",
	"fossilsf21descriptionLeft": "A mold is a hole left in rock after an organism's remains break. A cast forms from the minerals that fill that hole and solidify.",
	"fossilsf21descriptionRight": "The rock has preserved the ammonite shape over years.",

	"fossilsf22name": "Ammonite mold",
	"fossilsf22descriptionLeft": "Ammonites are one of the most exciting fossils to find. It is easy to identify an ammonite as so many look like a coiled rams horn.",
	"fossilsf22descriptionRight": "They have beautiful swirled shells and suture patterns, which scientists use to identify each species, that can be simple or very elaborate.",

	"fossilsf23name": "Plants mold",
	"fossilsf23descriptionLeft": "Sometimes, a plant leaves a mold fossil, a piece of rock with a hole where the plant used to be.",
	"fossilsf23descriptionRight": "Fossil molds and casts are formed when animal or plant tissues become surrounded by hardened sediment; the tissue then decays.",

	"fossilsf24name": "Mucrospirifer",
	"fossilsf24descriptionLeft": "The mucrospirifer was typically 2.5 cm long but the biggest recorded was around 4 cm.",
	"fossilsf24descriptionRight": "The mucrospirifer lived and would stay dug into the seafloor.",

	"fossilsf25name": "Pachycephalosaurio",
	"fossilsf25descriptionLeft": "It was a plant-eater that walked on its hind legs. It could grow around 4.6 meters long.",
	"fossilsf25descriptionRight": "Its eyes were set forward in the skull providing good 3D vision.",

	"fossilsf26name": "Paradoxides",
	"fossilsf26descriptionLeft": "Paradoxides, genus of trilobites (an extinct group of arthropods) found as fossils in Middle Cambrian rocks of North America and western Europe.",
	"fossilsf26descriptionRight": "The Cambrian Period lasted from about 542 million to 488 million years ago.",

	"fossilsf27name": "Paradoxides",
	"fossilsf27descriptionLeft": "Paradoxides have a well-developed head region terminating laterally in pointed spines that vary in development from species to species. The tail region is poorly developed.",
	"fossilsf27descriptionRight": "The body is well-segmented, and the axial lobe tapers to the minuscule pygidium (tail). Some species of Paradoxides attained large size (45 cm, or 18 inches)",

	"fossilsf28name": "Parasaurlopus skull",
	"fossilsf28descriptionLeft": "It was plant-eater the most representative feature of Parasaurlopus is its backward-curving crest that grew out of its skull.",
	"fossilsf28descriptionRight": "It spent a lot of time underwater and used its crest like a snorkel to breathe air. Other scientists think the crest was used like a weapon.",
	
	"fossilsf29name": "Mesohippus leg",
	"fossilsf29descriptionLeft": "The \"middle horse\" earned its name. Mesohippus is the intermediate between the Eohippus-like horses of the Eocene.",
	"fossilsf29descriptionRight": "The Eocene predecessors of Mesohippus had four toes on their front feet, but Mesohippus lost the fourth toe. This genus lived about 37-32 million years ago.",

	"fossilsf30name": "Mercychippus Leg",
	"fossilsf30descriptionLeft": "Merychippus represents a milestone in the evolution of horses. Though it retained the primitive character of 3 toes, it looked like a modern horse.",
	"fossilsf30descriptionRight": "Merychippus had a long face. Its long legs allowed it to escape from predators and migrate long distances to feed.",

	"fossilsf31name": "Pliohippus leg",
	"fossilsf31descriptionLeft": "Fossils of Pliohippus are found at many late Miocene localities in Colorado, the Great Plains of the US (Nebraska and the Dakotas) and Canada.",
	"fossilsf31descriptionRight": "Species in this genus lived from 12-6 million years ago.",

	"fossilsf32name": "Modern horse leg",
	"fossilsf32descriptionLeft": "Ancient horse ancestors once had just as many toes as we do — five, for most of us — but gradually lost them over time, until they ended up with just one big toe on each foot.",
	"fossilsf32descriptionRight": "The modern horse has remnants of the second and fourth toe as splint bones on the only remaining toe. They still play an important role in the support of the joint.",

	"fossilsf33name": "Hyracotherium leg",
	"fossilsf33descriptionLeft": "This small dog-sized animal represents the oldest known horse.",
	"fossilsf33descriptionRight": "It had a primitive short face, with eye sockets in the middle and a short diastema — the space between the front teeth and the cheek teeth.",

	"fossilsf34name": "Numidotherium foot bones",
	"fossilsf34descriptionLeft": "Numidotherium is the oldest known member of the mammalian order to which the living elephants belong.",
	"fossilsf34descriptionRight": "It reached a shoulder height of 90 to 100 cm and thus, was significantly larger than its predecessors Phosphatherium and Eritherium.",

	"fossilsf35name": "Gomphotherium foot bones",
	"fossilsf35descriptionLeft": "Gomphotherium is quite a bizarre prehistoric elephant that is quite different from the ones that we know today.",
	"fossilsf35descriptionRight": "Gomphotherium still had two tusks protruding down from the upper jaw,‭ ‬but they were recurved,‭ ‬which means that they gently curved towards the body rather than away like in modern elephants.",
	
	"fossilsf36name": "Elephas foot bones",
	"fossilsf36descriptionLeft": "Elephas is one of two surviving genera in the family of elephants, Elephantidae, with one surviving species, the Asian elephant, Elephas maximus",
	"fossilsf36descriptionRight": "Elephants belong to the order Proboscidia with one family (Elephantidae) and two genera (Loxodonta and Elephas).",

	"fossilsf37name": "Pecten",
	"fossilsf37descriptionLeft": "Pecten is a genus of large scallops or saltwater clams. marine bivalve mollusks in the family Pectinidae, the scallops.",
	"fossilsf37descriptionRight": "This genus is known in the fossil record from the Cretaceous period to the Quaternary period. Fossil shells within this genus have been found all over the world.",

	"fossilsf38name": "Megalodon skull",
	"fossilsf38descriptionLeft": "Megalodon lived globally in the warm oceans of the Miocene and Pliocene. Fossils of megalodon have been found on every continent except Antarctica",
	"fossilsf38descriptionRight": "It has the largest teeth of any shark, at a little over 7 inches. It was the most massive shark to ever live, and evidence shows it ate Whales.",


	"collectionstrex": "Tyrannosaurus rex was one of the most ferocious predators to ever walk the Earth. It had a massive body, sharp teeth, and jaws so powerful they could crush a car.",
	"collectionstriceratops": "Triceratops was the last and largest of the horned dinosaurs. It may have been one of the most common dinosaurs in the North American West at the time of Tyrannosaurus rex.",
	"collectionsvelociraptor": "Velociraptor was probably one of the more intelligent dinosaurs, because it had a large brain proportionate to its body size. It may have been able to reach speeds of 24 mph.",
	
	
	"badgeTitle": "YOU GOT IT!",
	"badgeTitle2": "YOU EARNED:",
	"badgeTrexTitle": "Tyrannosaurus rex mask",
	"badgeVelociraptorTitle": "Velociraptor mask",
	"badgeTriceraptorTitle": "Triceratops mask",
	

	"gameCompletedCoins": "Coins Collected:",
	"gameCompletedFossils": "Fossils Collected:",
	"gameCompletedCollections": "Collections Collected:",
	"gameCompletedGameOver": "GAME OVER",
	"gameCompletedbtnMainMenu":"Main menu"

  },


  "es": {
  }
}
